outputs/outlier_detector_tb.vcd
$date
	Sat Mar 07 13:44:39 2026
$end
$version
	Icarus Verilog
$end
$timescale
	100ps
$end
$scope module outlier_detector_tb $end
$var wire 1 ! output_ready $end
$var wire 1 " outlier_pulse $end
$var parameter 32 # DATA_WIDTH $end
$var reg 1 $ clk $end
$var reg 8 % data_in [7:0] $end
$var reg 1 & ready $end
$var reg 1 ' resetN $end
$var reg 8 ( threshold [7:0] $end
$scope module dut $end
$var wire 1 $ clk $end
$var wire 8 ) data_in [7:0] $end
$var wire 1 & ready $end
$var wire 1 ' resetN $end
$var wire 8 * threshold [7:0] $end
$var parameter 32 + DATA_WIDTH $end
$var parameter 32 , THRESH_WIDTH $end
$var reg 1 " outlier_pulse $end
$var reg 1 ! output_ready $end
$upscope $end
$scope task check_cycle $end
$var reg 1 - expected_outlier $end
$var reg 1 . expected_output_ready $end
$var reg 8 / test_data_in [7:0] $end
$var reg 256 0 test_name [255:0] $end
$var reg 1 1 test_ready $end
$var reg 1 2 test_resetN $end
$var reg 8 3 test_threshold [7:0] $end
$upscope $end
$upscope $end
$enddefinitions $end
$comment Show the parameter values. $end
$dumpall
b1000 ,
b1000 +
b1000 #
$end
#0
$dumpvars
b1010 3
02
01
b111001001100101011100110110010101110100001000000110001101101100011001010110000101110010011100110010000001101111011101010111010001110000011101010111010001110011 0
b11001 /
0.
0-
b1010 *
b11001 )
b1010 (
0'
0&
b11001 %
0$
x"
x!
$end
#10
0!
0"
#25
1$
#45
1'
b11100100110010101100001011001000111100100100000011011000110111101110111001000000110001001101100011011110110001101101011011100110010000001100101011101100110000101101100011101010110000101110100011010010110111101101110 0
12
#50
0$
#75
1$
#95
b1001 %
b1001 )
1&
b11000100110010101101100011011110111011100100000011101000110100001110010011001010111001101101000011011110110110001100100001000000110100101110011001000000110111001101111011101000010000001101111011101010111010001101100011010010110010101110010 0
1.
b1001 /
11
#100
0$
#125
1$
#135
1!
#145
b1010 %
b1010 )
b11001010111000101110101011000010110110000100000011101000110100001110010011001010111001101101000011011110110110001100100001000000110100101110011001000000110111001101111011101000010000001101111011101010111010001101100011010010110010101110010 0
b1010 /
#150
0$
#175
1$
#195
b1011 %
b1011 )
b110000101100010011011110111011001100101001000000111010001101000011100100110010101110011011010000110111101101100011001000010000001101001011100110010000001101111011101010111010001101100011010010110010101110010 0
1-
b1011 /
#200
0$
#225
1$
#235
1"
#245
0&
b111000001110101011011000111001101100101011100110010000001100100011100100110111101110000001000000110000101100110011101000110010101110010001000000111001001100101011000010110010001111001001000000110011101101111011001010111001100100000011011000110111101110111 0
0.
0-
01
#250
0$
#275
1$
#285
0!
0"
#295
b110010 (
b110010 *
b1100100 %
b1100100 )
1&
b110011101100101011100100010000001100001011000100110111101110110011001010010110101110100011010000111001001100101011100110110100001101111011011000110010000100000011101100110000101101100011101010110010100100000011100000111010101101100011100110110010101110011 0
1.
1-
b110010 3
b1100100 /
11
#300
0$
#325
1$
#335
1!
1"
#345
b11110110 (
b11110110 *
b11111011 %
b11111011 )
b111001101101001011001110110111001100101011001000010000001101110011001010110011101100001011101000110100101110110011001010010000001100011011011110110110101110000011000010111001001101001011100110110111101101110001000000111011101101111011100100110101101110011 0
b11110110 3
b11111011 /
#350
0$
#375
1$
#395
b11110100 %
b11110100 )
b111001001100101001000000110111001100101011001110110000101110100011010010111011001100101001000000111011001100001011011000111010101100101001000000110100101110011001000000110111001101111011101000010000001101111011101010111010001101100011010010110010101110010 0
0-
b11110100 /
#400
0$
#425
1$
#435
0"
#445
b110010 (
b110010 *
b1100100 %
b1100100 )
0&
b11100110110100101101110011001110110110001100101001011010110001101111001011000110110110001100101001000000111000001110101011011000111001101100101001000000110001001100101011010000110000101110110011010010110111101110010 0
0.
b110010 3
b1100100 /
01
#450
0$
#475
1$
#485
0!
